{
    "sourceRootFilePath": "public",
    "components": {
        "newPlayerPanel": {
            "files": [
                "components/newPlayerPanel/services/*.js",
                "components/newPlayerPanel/directives/*.js",
                "components/newPlayerPanel/modules/*.js"
            ],
            "components": [
                "playerForm"
            ]
        },
        "playerForm": {
            "files": [
                "components/playerForm/directives/*.js",
                "components/playerForm/modules/*.js"
            ]
        },
        "playerSelector": {
            "files": [
                "components/playerSelector/filters/*.js",
                "components/playerSelector/services/*.js",
                "components/playerSelector/directives/*.js",
                "components/playerSelector/modules/*.js"
            ]
        },
        "gameCard": {
            "files": [
                "components/gameCard/services/*.js",
                "components/gameCard/directives/*.js",
                "components/gameCard/modules/*.js"
            ]
        }
    },
    "scripts": {
        "shared": {
            "files": [
                "shared/base/*.js",
                "shared/models/*.js",
                "shared/services/*.js",
                "shared/directives/*.js",
                "shared/modules/*.js"
            ]
        },
        "activeGames": {
            "files": [
                "areas/activeGame/directives/ActiveGamesDirective.js",
                "bundles/pageModules/activeGames.js"
            ],
            "components": [
                "gameCard"
            ]
        },
        "addPlayer": {
            "files": [
                "areas/players/directives/AddPlayerDirective.js",
                "bundles/pageModules/addPlayer.js"
            ],
            "components": [
                "playerForm"
            ]
        },
        "admin": {
            "files": [
                "bundles/pageModules/admin.js"
            ]
        },
        "createGame": {
            "files": [
                "areas/createGame/services/CreateGameService.js",
                "areas/createGame/directives/ButtonsPanelDirective.js",
                "areas/createGame/directives/SelectedPlayersDirective.js",
                "areas/createGame/directives/CreateGameDirective.js",
                "bundles/pageModules/createGame.js"
            ],
            "components": [
                "playerSelector",
                "newPlayerPanel"
            ]
        },
        "editGame": {
            "files": [
                "areas/editGame/services/*.js",
                "areas/editGame/directives/*.js",
                "areas/editGame/modules/*.js",
                "bundles/pageModules/editGame.js"
            ],
            "components": [
                "playerSelector",
                "newPlayerPanel"
            ]
        },
        "gameHistory": {
            "files": [
                "areas/history/directives/GameHistoryDirective.js",
                "bundles/pageModules/gameHistory.js"
            ],
            "components": [
                "gameCard"
            ]
        },
        "index": {
            "files": [
                "areas/dotm/directives/DotmDirective.js",
                "areas/dotm/modules/DotmModule.js",
                "areas/rankings/services/RankingsService.js",
                "areas/rankings/directives/RankingsCardDirective.js",
                "areas/rankings/directives/RankingsDirective.js",
                "areas/rankings/modules/RankingsModule.js",
                "areas/rankings/directives/LeaderboardDirective.js",
                "bundles/pageModules/index.js"
            ]
        },
        "playersList": {
            "files": [
                "areas/players/services/PlayersListService.js",
                "areas/players/directives/EditPlayerDirective.js",
                "areas/players/directives/PlayersListDirective.js",
                "bundles/pageModules/playersList.js"
            ],
            "components": [
                "playerForm"
            ]
        },
        "playerStats": {
            "files": [
                "areas/playerStats/services/*.js",
                "areas/playerStats/directives/*.js",
                "bundles/pageModules/playerStats.js"
            ]
        },
        "rankingHistory": {
            "files": [
                "areas/dotm/directives/DotmDirective.js",
                "areas/dotm/modules/DotmModule.js",
                "areas/rankings/services/RankingsService.js",
                "areas/rankings/directives/RankingsCardDirective.js",
                "areas/rankings/directives/RankingsDirective.js",
                "areas/rankings/modules/RankingsModule.js",
                "areas/history/directives/RankingHistoryDirective.js",
                "bundles/pageModules/rankingHistory.js"
            ]
        }
    }
}